<?xml version="1.0" encoding="UTF-8" standalone="no"?>
<!-- Created with Inkscape (http://www.inkscape.org/) -->

<svg
   xmlns:dc="http://purl.org/dc/elements/1.1/"
   xmlns:cc="http://creativecommons.org/ns#"
   xmlns:rdf="http://www.w3.org/1999/02/22-rdf-syntax-ns#"
   xmlns:svg="http://www.w3.org/2000/svg"
   xmlns="http://www.w3.org/2000/svg"
   xmlns:sodipodi="http://sodipodi.sourceforge.net/DTD/sodipodi-0.dtd"
   xmlns:inkscape="http://www.inkscape.org/namespaces/inkscape"
   width="700"
   height="1200"
   viewBox="0 0 700 1200"
   id="svg4155"
   version="1.1"
   inkscape:version="0.91 r"
   inkscape:export-filename="/media/christophe/GrosDisque/Fichiersdetravail/Projets_Libres/GuideLibreAsso/gla/images/ptitbonhomme6.png"
   inkscape:export-xdpi="299.95715"
   inkscape:export-ydpi="299.95715"
   sodipodi:docname="ptibonhomme7.svg">
  <defs
     id="defs4157" />
  <sodipodi:namedview
     id="base"
     pagecolor="#ffffff"
     bordercolor="#cc0067"
     borderopacity="1"
     inkscape:pageopacity="0.0"
     inkscape:pageshadow="2"
     inkscape:zoom="0.49497475"
     inkscape:cx="730.64254"
     inkscape:cy="827.66484"
     inkscape:document-units="px"
     inkscape:current-layer="layer1"
     showgrid="false"
     units="px"
     borderlayer="true"
     inkscape:window-width="1920"
     inkscape:window-height="1028"
     inkscape:window-x="0"
     inkscape:window-y="0"
     inkscape:window-maximized="1" />
  <metadata
     id="metadata4160">
    <rdf:RDF>
      <cc:Work
         rdf:about="">
        <dc:format>image/svg+xml</dc:format>
        <dc:type
           rdf:resource="http://purl.org/dc/dcmitype/StillImage" />
        <dc:title></dc:title>
      </cc:Work>
    </rdf:RDF>
  </metadata>
  <g
     inkscape:label="Calque 1"
     inkscape:groupmode="layer"
     id="layer1"
     transform="translate(0,147.63786)">
    <path
       style="opacity:1;fill:#ffffff;fill-opacity:1;fill-rule:nonzero;stroke:none;stroke-width:1.70000005;stroke-linecap:round;stroke-linejoin:round;stroke-miterlimit:2.70000005;stroke-dasharray:none;stroke-dashoffset:0;stroke-opacity:1"
       d="m 273.36742,207.42135 c -1.59772,0.9257 -2.90258,4.95275 -3.79624,6.41128 -1.94152,5.6818 -6.13031,11.70101 -5.02305,18.16114 0.2591,5.35924 2.31654,10.70082 2.37449,16.10131 2.13949,23.88839 2.02637,48.32007 7.81487,71.70565 1.73772,5.38846 6.3913,13.79414 11.18396,17.31034 3.39507,2.59482 9.70003,-0.70716 12.56989,-3.33152 5.71607,-4.35635 8.50641,-9.3498 15.09592,-12.49357 4.11883,-1.17917 2.9361,1.66776 4.51083,4.44583 3.31094,6.7491 6.74838,15.24997 13.09527,19.69256 6.22051,5.09915 16.98413,7.39465 25.02926,6.56939 16.27435,-1.32386 31.32315,-13.70177 39.50633,-27.04051 5.07315,-8.35233 8.0048,-20.77055 9.73986,-30.32331 -1.93117,0.48194 -4.30843,2.64089 -6.08259,0.43008 -2.33305,-3.00971 0.47097,-6.77264 -0.12423,-10.27776 -0.28229,-11.93597 -0.78637,-24.11347 -1.18384,-36.01156 -3.43563,-13.30253 -11.96,-27.12798 -25.06743,-32.81628 -14.57888,-6.2303 -37.42211,-2.22691 -48.14611,9.14502 -6.50981,5.87638 -8.79452,12.41884 -11.90403,20.51123 -1.05714,2.80761 -1.1843,5.32115 -4.55919,3.91223 -6.94604,-4.96807 -8.33562,-10.89221 -12.48809,-17.97011 -4.26181,-7.56452 -7.45623,-15.10074 -14.27688,-20.79407 -1.51371,-0.99534 -6.45134,-3.10845 -8.269,-3.33737 z m 60.47516,46.04041 c 5.22329,0.5886 4.02166,3.37961 5.42363,7.77058 3.11078,10.73171 3.81767,20.80663 -0.7993,31.04577 -1.38491,3.33423 -2.87784,5.2215 -6.10401,2.62001 -7.5484,-5.48123 -8.89267,-12.81541 -9.67112,-21.74361 -0.73609,-8.79869 0.93457,-16.80337 9.5389,-20.4702 0.51882,-0.17571 1.06281,0.78368 1.6119,0.77745 z m -45.12544,4.14405 c 4.07259,0.21868 3.42203,3.95403 4.96372,7.07096 2.2151,4.91513 1.92746,9.936 1.0206,15.29044 -0.65557,5.55608 1.04553,9.39849 -4.3686,12.47259 -3.87744,1.1865 -4.61312,-0.65217 -6.77483,-3.42287 -4.88208,-7.27486 -7.4464,-15.47175 -4.66311,-23.95743 2.03409,-4.22877 5.02705,-6.92736 9.82222,-7.45369 z"
       id="path4975"
       inkscape:connector-curvature="0"
       transform="translate(0,-147.63786)"
       sodipodi:nodetypes="ccccccccccccccccccccccccccccccccccccc" />
    <path
       style="color:#000000;clip-rule:nonzero;display:inline;overflow:visible;visibility:visible;opacity:1;isolation:auto;mix-blend-mode:normal;color-interpolation:sRGB;color-interpolation-filters:linearRGB;solid-color:#000000;solid-opacity:1;fill:#000000;fill-opacity:1;fill-rule:nonzero;stroke:none;stroke-width:1;stroke-linecap:butt;stroke-linejoin:miter;stroke-miterlimit:4;stroke-dasharray:none;stroke-dashoffset:0;stroke-opacity:1;color-rendering:auto;image-rendering:auto;shape-rendering:auto;text-rendering:auto;enable-background:accumulate"
       d="M 357.08728,-74.777757 C 299.10988,-76.419869 253.45839,-1.9018865 256.009,73.273877 c 1.67275,76.621643 17.59748,155.233633 50.33862,218.513093 29.8771,27.76032 -11.89592,78.60143 -22.31932,113.64907 -11.46917,24.11821 -35.07547,68.46908 -50.04509,64.98121 -22.65448,-15.24545 -41.61006,-71.22792 -16.78101,-91.69662 9.35725,-29.42157 -19.02606,-33.79266 -18.76925,-62.39046 -29.86559,-40.54731 -58.2095,26.14701 -92.41299,12.96045 -33.775249,21.26128 -12.876774,80.76194 -2.68611,111.1801 36.14945,-14.2294 47.97728,23.53175 68.24209,57.54168 15.20919,31.6597 41.49937,71.77924 67.08973,58.46824 35.37812,-15.78038 58.48014,-67.46323 85.71953,-90.22945 7.4965,-20.98059 21.50059,-51.91883 17.98472,-9.25052 -2.12413,38.26758 8.64993,78.41846 7.14945,113.93911 -42.22799,4.16588 -87.33775,-5.36707 -129.26964,11.86435 -37.03495,7.76389 -37.84886,60.06127 -36.75756,99.71559 12.23081,62.47271 -45.89226,3.66554 -72.23611,20.07367 -37.207345,-0.21742 -64.479895,45.01004 -64.922753,92.92953 -7.318429,51.41793 31.619941,101.82031 69.349933,84.41809 43.28772,-10.60329 87.8844,-45.00592 132.0914,-24.10642 39.66461,33.71879 56.82709,-51.92705 25.22059,-81.55267 -12.29699,-32.67744 -26.54447,-101.74641 12.14628,-112.81504 32.89254,-13.61537 69.34225,-40.18123 102.9733,-16.46665 21.5606,23.39374 39.36121,61.29102 55.42009,94.28855 25.45565,31.77091 1.13185,80.24278 22.65361,114.46026 10.26289,32.36694 64.19664,3.22422 34.85729,41.89959 -15.8528,42.49835 21.49072,86.63538 47.47545,76.66813 22.91806,4.97193 53.52462,-3.49533 79.29669,4.0128 39.56851,8.94785 60.02332,-51.05232 40.50829,-89.85481 -8.58227,-41.51744 2.00915,-88.95408 -17.73683,-126.61444 -6.20045,-38.56155 -41.97296,-43.902 -53.07305,-36.57864 -23.60593,10.33623 -46.28912,38.17813 -72.88557,44.58185 -4.66185,-16.85475 -17.27536,-78.39152 -27.27862,-111.82678 -6.72894,-40.69653 -35.19815,-65.44226 -40.95486,-105.41318 -10.06362,-47.9313 -13.81042,-97.6349 -21.7386,-146.16677 44.74907,6.81311 96.91616,-1.04948 133.12536,42.1758 -6.78058,21.97151 22.50756,91.41176 -5.96556,79.94838 -33.64093,8.92414 -18.7214,59.99588 -3.93878,73.91668 -8.24622,66.08939 48.78648,44.11737 78.19159,46.89644 22.75994,-7.4493 12.63481,-43.39301 32.49087,-54.64852 14.31781,-47.96286 -42.19185,-73.57118 -38.29125,-106.61147 -1.85328,-43.91689 -15.80608,-85.14847 -30.39722,-123.85999 -24.33183,-22.37039 -60.79353,-35.09562 -93.27182,-39.18342 -32.03214,-6.24342 -64.05957,-17.75733 -91.20671,-42.27486 0.91207,-44.26629 24.69128,-75.23842 26.80679,-121.03372 C 451.44276,97.210363 465.54162,21.54768 429.7952,-31.275975 411.44525,-58.424566 384.3363,-74.46579 357.08728,-74.777757 Z M 273.41291,61.529711 c 18.87667,1.654221 28.15239,63.299439 41.09677,40.454899 14.06511,-43.371499 69.57851,-50.245481 81.18397,0.78377 2.80592,25.41747 -5.37774,55.79479 8.24834,45.02938 -7.83191,43.7575 -50.03086,74.39031 -77.82348,40.98597 -10.08924,-18.2762 -8.50254,-26.62875 -26.4709,-6.49834 -28.76463,29.22304 -27.77503,-62.93769 -31.51468,-91.472877 -5.53818,-17.42066 6.56163,-17.560114 5.27998,-29.282802 z m 59.01315,41.088299 c -32.56893,14.09318 8.55808,84.36244 11.83873,24.76404 -0.30954,-9.3385 -3.10329,-24.42044 -11.83873,-24.76404 z m -43.89357,5.37231 c -32.81994,6.79893 7.98419,73.8444 9.65628,17.61237 -1.22614,-6.12933 -4.23572,-16.55401 -9.65628,-17.61237 z m 42.99904,30.42143 c 1.23719,0.708 -3.82691,3.15969 0,0 z m -39.92991,86.53928 c 0.26218,2.16579 -0.98823,-0.6236 0,0 z m 288.0536,315.85866 -1.37778,0.23951 1.37778,-0.23951 z m -12.59538,54.62914 c 0.34801,1.17338 -1.95867,-0.78338 0,0 z m 86.27575,10.65396 c 4.23454,9.18936 -2.93465,0.31012 0,0 z"
       id="path4887"
       inkscape:connector-curvature="0" />
  </g>
</svg>
