<?xml version="1.0" encoding="UTF-8" standalone="no"?>
<!-- Created with Inkscape (http://www.inkscape.org/) -->

<svg
   xmlns:dc="http://purl.org/dc/elements/1.1/"
   xmlns:cc="http://creativecommons.org/ns#"
   xmlns:rdf="http://www.w3.org/1999/02/22-rdf-syntax-ns#"
   xmlns:svg="http://www.w3.org/2000/svg"
   xmlns="http://www.w3.org/2000/svg"
   xmlns:xlink="http://www.w3.org/1999/xlink"
   xmlns:sodipodi="http://sodipodi.sourceforge.net/DTD/sodipodi-0.dtd"
   xmlns:inkscape="http://www.inkscape.org/namespaces/inkscape"
   width="9.7133551"
   height="17.302479"
   id="svg3545"
   version="1.1"
   inkscape:version="0.91 r"
   sodipodi:docname="marguerite1.svg"
   inkscape:export-filename="/home/christophe/Téléchargements/guideversionsmart_20150924_17h00/images/marguerite2.pdf"
   inkscape:export-xdpi="300"
   inkscape:export-ydpi="300">
  <defs
     id="defs3547">
    <radialGradient
       inkscape:collect="always"
       xlink:href="#linearGradient16808"
       id="radialGradient21794"
       gradientUnits="userSpaceOnUse"
       cx="619.90173"
       cy="227.76413"
       fx="619.90173"
       fy="227.76413"
       r="5.8968058" />
    <linearGradient
       inkscape:collect="always"
       id="linearGradient16808">
      <stop
         style="stop-color:#cfb444;stop-opacity:1;"
         offset="0"
         id="stop16810" />
      <stop
         style="stop-color:#cfb444;stop-opacity:0;"
         offset="1"
         id="stop16812" />
    </linearGradient>
    <radialGradient
       inkscape:collect="always"
       xlink:href="#linearGradient16808"
       id="radialGradient3980"
       gradientUnits="userSpaceOnUse"
       cx="619.90173"
       cy="227.76413"
       fx="619.90173"
       fy="227.76413"
       r="5.8968058" />
    <radialGradient
       inkscape:collect="always"
       xlink:href="#linearGradient16808"
       id="radialGradient4026"
       gradientUnits="userSpaceOnUse"
       cx="619.90173"
       cy="227.76413"
       fx="619.90173"
       fy="227.76413"
       r="5.8968058" />
  </defs>
  <sodipodi:namedview
     id="base"
     pagecolor="#ffffff"
     bordercolor="#666666"
     borderopacity="1.0"
     inkscape:pageopacity="0.0"
     inkscape:pageshadow="2"
     inkscape:zoom="31.678384"
     inkscape:cx="-8.586858"
     inkscape:cy="8.6271873"
     inkscape:document-units="px"
     inkscape:current-layer="layer1"
     showgrid="false"
     fit-margin-top="0"
     fit-margin-left="0"
     fit-margin-right="0"
     fit-margin-bottom="0"
     inkscape:window-width="1920"
     inkscape:window-height="1028"
     inkscape:window-x="0"
     inkscape:window-y="0"
     inkscape:window-maximized="1" />
  <metadata
     id="metadata3550">
    <rdf:RDF>
      <cc:Work
         rdf:about="">
        <dc:format>image/svg+xml</dc:format>
        <dc:type
           rdf:resource="http://purl.org/dc/dcmitype/StillImage" />
        <dc:title></dc:title>
      </cc:Work>
    </rdf:RDF>
  </metadata>
  <g
     inkscape:label="Calque 1"
     inkscape:groupmode="layer"
     id="layer1"
     transform="translate(-370.51546,-524.72877)">
    <path
       id="path18079"
       style="fill:none;stroke:#aa4400;stroke-width:0.52140582;stroke-linecap:butt;stroke-linejoin:miter;stroke-miterlimit:4;stroke-opacity:1;stroke-dasharray:none"
       d="m 371.98315,541.89389 c 0,0 -3.84717,-6.51239 2.9309,-11.1684" />
    <path
       style="fill:#aa4400;fill-opacity:1;stroke:#aa4400;stroke-width:0.02643993;stroke-linecap:round;stroke-linejoin:round;stroke-miterlimit:4;stroke-opacity:1;stroke-dasharray:none"
       d="m 374.06942,524.98305 c -0.0555,0.0121 -0.0932,0.0392 -0.139,0.0779 -0.26748,0.22568 -0.30318,0.86807 -0.0925,1.63973 -0.60467,-0.38239 -1.22096,-0.57176 -1.55776,-0.44759 -0.4726,0.17426 -0.21192,0.88919 0.53013,1.63495 -0.72763,-0.0235 -1.38812,0.13565 -1.63414,0.4313 -0.35439,0.4259 0.24284,0.9795 1.32392,1.24615 0.0225,0.006 0.0465,0.005 0.0691,0.0104 -0.75327,0.34023 -1.3127,0.78423 -1.37308,1.13511 -0.0805,0.46786 0.76051,0.5684 1.88556,0.24275 -0.4516,0.65673 -0.69341,1.35664 -0.55767,1.72486 0.17849,0.48423 0.94325,0.25726 1.70403,-0.5197 -0.028,0.72923 0.10161,1.37245 0.39199,1.61403 0.40436,0.33646 0.93125,-0.22318 1.20599,-1.24518 0.33692,0.6288 0.76358,1.08317 1.12709,1.14571 0.53032,0.0913 0.71944,-0.70593 0.40985,-1.77547 0.62679,0.42966 1.25847,0.65776 1.58667,0.53676 0.45109,-0.16629 0.18437,-0.93338 -0.6185,-1.70484 -0.007,-0.006 -0.003,-0.0235 -0.009,-0.0298 0.79379,0.0636 1.47351,-0.0622 1.72251,-0.36141 0.33198,-0.39899 -0.26275,-0.94019 -1.34401,-1.2068 0.68941,-0.33095 1.21363,-0.78352 1.27426,-1.13592 0.0831,-0.48271 -0.70674,-0.62061 -1.7763,-0.31103 0.44256,-0.65024 0.67176,-1.32154 0.53759,-1.68549 -0.18079,-0.49035 -0.98239,-0.23419 -1.75384,0.56871 0.0642,-0.76983 -0.0702,-1.43675 -0.34215,-1.66306 -0.36371,-0.30263 -0.86787,0.30215 -1.13769,1.35446 -0.34983,-0.6761 -0.83682,-1.2066 -1.23475,-1.27507 -0.0692,-0.0119 -0.14225,-0.014 -0.19764,-0.002 z m 1.08037,3.23053 c 0.45527,-0.21265 1.01485,-0.15829 1.41155,0.19934 0.52893,0.47683 0.58035,1.31004 0.10352,1.83898 -0.47684,0.52893 -1.28996,0.54098 -1.8189,0.0642 -0.52893,-0.47683 -0.57072,-1.28032 -0.0939,-1.80926 0.11922,-0.1322 0.24594,-0.22232 0.39771,-0.29321 z"
       id="path21732"
       inkscape:connector-curvature="0" />
  </g>
</svg>
